{
  "name": "postmill",
  "css_prefix_text": "icon-",
  "css_use_suffix": false,
  "hinting": true,
  "units_per_em": 1000,
  "ascent": 850,
  "glyphs": [
    {
      "uid": "8b80d36d4ef43889db10bc1f0dc9a862",
      "css": "user",
      "code": 59394,
      "src": "fontawesome"
    },
    {
      "uid": "bf882b30900da12fca090d9796bc3030",
      "css": "mail",
      "code": 59395,
      "src": "fontawesome"
    },
    {
      "uid": "98687378abd1faf8f6af97c254eb6cd6",
      "css": "settings",
      "code": 59396,
      "src": "fontawesome"
    },
    {
      "uid": "c1f1975c885aa9f3dad7810c53b82074",
      "css": "lock",
      "code": 59397,
      "src": "fontawesome"
    },
    {
      "uid": "0d20938846444af8deb1920dc85a29fb",
      "css": "logout",
      "code": 59398,
      "src": "fontawesome"
    },
    {
      "uid": "559647a6f430b3aeadbecd67194451dd",
      "css": "menu",
      "code": 61641,
      "src": "fontawesome"
    },
    {
      "uid": "98d9c83c1ee7c2c25af784b518c522c5",
      "css": "block",
      "code": 59404,
      "src": "fontawesome"
    },
    {
      "uid": "dec0ce0476433f7e49e096526cf89465",
      "css": "hammer",
      "code": 59399,
      "src": "fontawesome"
    },
    {
      "uid": "6fe95ffc3c807e62647d4f814a96e0d7",
      "css": "sitemap",
      "code": 61672,
      "src": "fontawesome"
    },
    {
      "uid": "598a5f2bcf3521d1615de8e1881ccd17",
      "css": "clock",
      "code": 59400,
      "src": "fontawesome"
    },
    {
      "uid": "0ddd3e8201ccc7d41f7b7c9d27eca6c1",
      "css": "link",
      "code": 59401,
      "src": "fontawesome"
    },
    {
      "uid": "98edd99a41fbdc5633151cd21b7e56f8",
      "css": "up",
      "code": 59403,
      "src": "iconic"
    },
    {
      "uid": "41d90aea465750c2a5dc6cb0bdef9617",
      "css": "down",
      "code": 59393,
      "src": "iconic"
    },
    {
      "uid": "p57wgnf4glngbchbucdi029iptu8oxb8",
      "css": "pin",
      "code": 59402,
      "src": "typicons"
    },
    {
      "uid": "fb1c59faa93eb6e2248c2456625b08a2",
      "css": "user-times",
      "code": 62005,
      "src": "fontawesome"
    },
    {
      "uid": "657ab647f6248a6b57a5b893beaf35a9",
      "css": "lock-open",
      "code": 59405,
      "src": "fontawesome"
    },
    {
      "uid": "cda0cdcfd38f5f1d9255e722dad42012",
      "css": "spinner",
      "code": 61712,
      "src": "fontawesome"
    },
    {
      "uid": "d35a1d35efeb784d1dc9ac18b9b6c2b6",
      "css": "pencil",
      "code": 59406,
      "src": "fontawesome"
    },
    {
      "uid": "bbfb51903f40597f0b70fd75bc7b5cac",
      "css": "trash",
      "code": 61944,
      "src": "fontawesome"
    },
    {
      "uid": "44e04715aecbca7f266a17d5a7863c68",
      "css": "plus",
      "code": 59392,
      "src": "fontawesome"
    },
    {
      "uid": "c76b7947c957c9b78b11741173c8349b",
      "css": "attention",
      "code": 59409,
      "src": "fontawesome"
    },
    {
      "uid": "f89739d9df5c9e70ece9be9cdf66abb6",
      "css": "envelope-open",
      "code": 62134,
      "src": "fontawesome"
    },
    {
      "uid": "ccc2329632396dc096bb638d4b46fb98",
      "css": "envelope",
      "code": 61664,
      "src": "fontawesome"
    },
    {
      "uid": "56a21935a5d4d79b2e91ec00f760b369",
      "css": "sort",
      "code": 61660,
      "src": "fontawesome"
    },
    {
      "uid": "4109c474ff99cad28fd5a2c38af2ec6f",
      "css": "filter",
      "code": 61616,
      "src": "fontawesome"
    },
    {
      "uid": "9dd9e835aebe1060ba7190ad2b2ed951",
      "css": "search",
      "code": 59410,
      "src": "fontawesome"
    },
    {
      "uid": "d7271d490b71df4311e32cdacae8b331",
      "css": "home",
      "code": 59411,
      "src": "fontawesome"
    },
    {
      "uid": "6373242453e92e8ce419b8391463867a",
      "css": "pin-outline",
      "code": 59412,
      "src": "typicons"
    },
    {
      "uid": "12f4ece88e46abd864e40b35e05b11cd",
      "css": "ok",
      "code": 59413,
      "src": "fontawesome"
    },
    {
      "uid": "c2152732d525871cf35345955854f711",
      "css": "moon-inv",
      "code": 59414,
      "src": "iconic"
    },
    {
      "uid": "48050e07077b01021f7fbdbbec8f7de7",
      "css": "sun-inv",
      "code": 59416,
      "src": "iconic"
    },
    {
      "uid": "5211af474d3a9848f67f945e2ccaf143",
      "css": "cancel",
      "code": 59415,
      "src": "fontawesome"
    },
    {
      "uid": "e82cedfa1d5f15b00c5a81c9bd731ea2",
      "css": "info-circled",
      "code": 59407,
      "src": "fontawesome"
    },
    {
      "uid": "17ebadd1e3f274ff0205601eef7b9cc4",
      "css": "help-circled",
      "code": 59408,
      "src": "fontawesome"
    },
    {
      "uid": "43ab845088317bd348dee1d975700c48",
      "css": "ok-circled",
      "code": 59417,
      "src": "fontawesome"
    },
    {
      "uid": "0f4cae16f34ae243a6144c18a003f2d8",
      "css": "cancel-circled",
      "code": 59418,
      "src": "fontawesome"
    },
    {
      "uid": "474656633f79ea2f1dad59ff63f6bf07",
      "css": "star",
      "code": 59419,
      "src": "fontawesome"
    },
    {
      "uid": "de5f0a564ccf8816325330e292e11533",
      "css": "rss-squared",
      "code": 61763,
      "src": "fontawesome"
    },
    {
      "uid": "3d39c828009c04ddb6764c0b04cd2439",
      "css": "forward",
      "code": 59420,
      "src": "fontawesome"
    },
    {
      "uid": "e99461abfef3923546da8d745372c995",
      "css": "cog",
      "code": 59421,
      "src": "fontawesome"
    },
    {
      "uid": "58b78b6ca784d5c3db5beefcd9e18061",
      "css": "left-small",
      "code": 59422,
      "src": "typicons"
    },
    {
      "uid": "f9c3205df26e7778abac86183aefdc99",
      "css": "ccw",
      "code": 59423,
      "src": "fontawesome"
    },
    {
      "uid": "5bb103cd29de77e0e06a52638527b575",
      "css": "wrench",
      "code": 59424,
      "src": "fontawesome"
    },
    {
      "uid": "1dcd2b2148b7f086a4eb47f6a746bdee",
      "css": "unlink",
      "code": 61735,
      "src": "fontawesome"
    }
  ]
}
